<?xml version="1.0" encoding="UTF-8" standalone="no"?>
<!-- Created with Inkscape (http://www.inkscape.org/) -->

<svg
   xmlns:dc="http://purl.org/dc/elements/1.1/"
   xmlns:cc="http://creativecommons.org/ns#"
   xmlns:rdf="http://www.w3.org/1999/02/22-rdf-syntax-ns#"
   xmlns:svg="http://www.w3.org/2000/svg"
   xmlns="http://www.w3.org/2000/svg"
   xmlns:sodipodi="http://sodipodi.sourceforge.net/DTD/sodipodi-0.dtd"
   xmlns:inkscape="http://www.inkscape.org/namespaces/inkscape"
   version="1.1"
   id="svg3767"
   width="297mm"
   height="297mm"
   viewBox="0 0 1122.5197 1122.5197"
   sodipodi:docname="nyr-img03.svg"
   inkscape:version="0.92.4 (5da689c313, 2019-01-14)"
   inkscape:export-filename="/home/pi/Documents/Pd/patches/nyr/nyr-img/nyr-img03.png"
   inkscape:export-xdpi="95"
   inkscape:export-ydpi="95">
  <metadata
     id="metadata3773">
    <rdf:RDF>
      <cc:Work
         rdf:about="">
        <dc:format>image/svg+xml</dc:format>
        <dc:type
           rdf:resource="http://purl.org/dc/dcmitype/StillImage" />
        <dc:title />
      </cc:Work>
    </rdf:RDF>
  </metadata>
  <defs
     id="defs3771" />
  <sodipodi:namedview
     pagecolor="#ffffff"
     bordercolor="#666666"
     borderopacity="1"
     objecttolerance="10"
     gridtolerance="10"
     guidetolerance="10"
     inkscape:pageopacity="0"
     inkscape:pageshadow="2"
     inkscape:window-width="1360"
     inkscape:window-height="708"
     id="namedview3769"
     showgrid="false"
     inkscape:zoom="0.34307774"
     inkscape:cx="128.90091"
     inkscape:cy="497.51607"
     inkscape:window-x="0"
     inkscape:window-y="36"
     inkscape:window-maximized="1"
     inkscape:current-layer="layer4"
     inkscape:pagecheckerboard="false"
     units="mm"
     showborder="true"
     inkscape:showpageshadow="true" />
  <g
     inkscape:groupmode="layer"
     id="layer4"
     inkscape:label="vector 03"
     style="display:inline"
     sodipodi:insensitive="true">
    <g
       id="g179">
      <path
         sodipodi:nodetypes="cccccccccccccccccc"
         inkscape:connector-curvature="0"
         id="path1166"
         d="M 141.16637,338.85602 505.97553,62.672824 761.54805,662.44381 571.92973,695.4209 565.74652,728.398 1045.9755,928.32167 1017.1206,1078.7797 852.23507,1097.3293 520.40301,897.40564 580.174,491.37511 446.20454,658.32167 297.80759,627.40564 256.58622,876.79495 155.59385,571.75678 409.1053,470.76442 437.96026,522.29114 417.34958,268.77969 Z"
         style="fill:none;stroke:#000000;stroke-width:1px;stroke-linecap:butt;stroke-linejoin:miter;stroke-opacity:1" />
      <path
         sodipodi:nodetypes="cccccccccccccc"
         inkscape:connector-curvature="0"
         id="path1168"
         d="M 644.13187,971.85638 153.53279,1019.0087 125.09948,872.24379 448.26561,779.92472 518.34194,380.0774 907.88392,730.45907 982.0824,697.48197 858.41827,464.58121 1033.6091,312.06213 990.32667,140.99343 666.73889,291.45144 759.48698,196.64228 541.0137,21.45145 514.1756,83.541142"
         style="fill:none;stroke:#000000;stroke-width:1px;stroke-linecap:butt;stroke-linejoin:miter;stroke-opacity:1" />
      <path
         inkscape:connector-curvature="0"
         id="path1170"
         d="M 125.09948,872.24379 216.91541,1103.9697 358.28278,999.0372"
         style="fill:none;stroke:#000000;stroke-width:1px;stroke-linecap:butt;stroke-linejoin:miter;stroke-opacity:1" />
    </g>
  </g>
</svg>
