<?xml version="1.0" encoding="UTF-8" standalone="no"?>
<!-- Created with Inkscape (http://www.inkscape.org/) -->

<svg
   xmlns:dc="http://purl.org/dc/elements/1.1/"
   xmlns:cc="http://creativecommons.org/ns#"
   xmlns:rdf="http://www.w3.org/1999/02/22-rdf-syntax-ns#"
   xmlns:svg="http://www.w3.org/2000/svg"
   xmlns="http://www.w3.org/2000/svg"
   xmlns:sodipodi="http://sodipodi.sourceforge.net/DTD/sodipodi-0.dtd"
   xmlns:inkscape="http://www.inkscape.org/namespaces/inkscape"
   version="1.1"
   id="svg3767"
   width="297mm"
   height="297mm"
   viewBox="0 0 1122.5197 1122.5197"
   sodipodi:docname="nyr-img02.svg"
   inkscape:version="0.92.4 (5da689c313, 2019-01-14)"
   inkscape:export-filename="/home/pi/Documents/Pd/patches/nyr/nyr-img/nyr-img02.png"
   inkscape:export-xdpi="95"
   inkscape:export-ydpi="95">
  <metadata
     id="metadata3773">
    <rdf:RDF>
      <cc:Work
         rdf:about="">
        <dc:format>image/svg+xml</dc:format>
        <dc:type
           rdf:resource="http://purl.org/dc/dcmitype/StillImage" />
        <dc:title />
      </cc:Work>
    </rdf:RDF>
  </metadata>
  <defs
     id="defs3771" />
  <sodipodi:namedview
     pagecolor="#ffffff"
     bordercolor="#666666"
     borderopacity="1"
     objecttolerance="10"
     gridtolerance="10"
     guidetolerance="10"
     inkscape:pageopacity="0"
     inkscape:pageshadow="2"
     inkscape:window-width="1360"
     inkscape:window-height="708"
     id="namedview3769"
     showgrid="false"
     inkscape:zoom="0.34307774"
     inkscape:cx="36.644147"
     inkscape:cy="596.07155"
     inkscape:window-x="0"
     inkscape:window-y="36"
     inkscape:window-maximized="1"
     inkscape:current-layer="layer3"
     inkscape:pagecheckerboard="false"
     units="mm"
     showborder="true"
     inkscape:showpageshadow="true" />
  <g
     inkscape:groupmode="layer"
     id="layer3"
     inkscape:label="vector 02"
     style="display:inline"
     sodipodi:insensitive="true">
    <g
       id="g91">
      <path
         sodipodi:nodetypes="ccc"
         inkscape:connector-curvature="0"
         id="path1009"
         d="m 181.28353,584.65001 270,-226.71756 296.79389,39.16031"
         style="fill:none;stroke:#000000;stroke-width:1px;stroke-linecap:butt;stroke-linejoin:miter;stroke-opacity:1" />
      <path
         sodipodi:nodetypes="ccccccccccccccccccccccccc"
         inkscape:connector-curvature="0"
         id="path1011"
         d="M 133.36368,864.95535 435.31025,872.16909 722.8813,429.47228 642.72454,216.69252 572.76955,333.28417 429.94477,292.47709 416.82821,225.43689 370.19155,324.5398 209.87803,279.36053 192.38929,148.19492 540.70684,79.697329 577.14173,196.28898 582.97132,75.325142 722.8813,25.77369 1001.2439,263.32918 851.13212,277.90314 725.79609,649.53902 835.10076,1022.6324 991.0421,961.42169 912.34273,541.69175 803.03806,528.57519 951.69241,460.07759 867.16347,207.94814 728.71088,257.4996 748.07742,397.09276"
         style="fill:none;stroke:#000000;stroke-width:1px;stroke-linecap:butt;stroke-linejoin:miter;stroke-opacity:1" />
      <path
         sodipodi:nodetypes="ccccccccccccc"
         inkscape:connector-curvature="0"
         id="path1013"
         d="m 133.36368,864.95535 -22.58855,-183.35362 282.73475,-217.15195 169.0579,94.73071 -29.14791,-99.1029 358.51932,179.25966 -99.1029,53.92364 20.40354,355.60461 -84.52895,49.5514 -132.623,-323.54185 -59.75322,14.57396 L 483.86841,1021.175 250.32933,867.53168"
         style="fill:none;stroke:#000000;stroke-width:1px;stroke-linecap:butt;stroke-linejoin:miter;stroke-opacity:1" />
      <path
         inkscape:connector-curvature="0"
         id="path1022"
         d="M 181.28353,584.65001 261.66521,704.19199 414.18429,637.20726 379.14612,511.48207 513.01633,753.01412"
         style="fill:none;stroke:#000000;stroke-width:1px;stroke-linecap:butt;stroke-linejoin:miter;stroke-opacity:1"
         sodipodi:nodetypes="ccccc" />
    </g>
  </g>
</svg>
